{
  "projects": {
    "appOne": {
      "name": "appOne",
      "integrations": {
        "cordova": {}
      },
      "type": "angular",
      "root": "projects/appOne"
    },
    "appTwo": {
      "name": "appTwo",
      "integrations": {
        "cordova": {}
      },
      "type": "angular",
      "root": "projects/appTwo"
    }
  }
}
